lm_stm32f407xx_gpio.c:23:6:GPIO_PeriClockControl	16	static
lm_stm32f407xx_gpio.c:118:6:GPIO_Init	32	static
lm_stm32f407xx_gpio.c:212:6:GPIO_DeInit	16	static
lm_stm32f407xx_gpio.c:265:9:GPIO_ReadFromInputPin	24	static
lm_stm32f407xx_gpio.c:287:10:GPIO_ReadFromInputPort	24	static
lm_stm32f407xx_gpio.c:309:6:GPIO_WriteToOutputPin	16	static
lm_stm32f407xx_gpio.c:337:6:GPIO_WriteToOutputPort	16	static
lm_stm32f407xx_gpio.c:355:6:GPIO_ToggleOutputPin	16	static
lm_stm32f407xx_gpio.c:373:6:GPIO_IRQInterruptConfig	16	static
lm_stm32f407xx_gpio.c:427:6:GPIO_IRQPriorityConfig	24	static
lm_stm32f407xx_gpio.c:451:6:GPIO_IRQHandling	16	static
