lm_stm32f407xx_spi.c:27:6:SPI_PeriClockControl	16	static
lm_stm32f407xx_spi.c:83:6:SPI_Init	24	static
lm_stm32f407xx_spi.c:149:6:SPI_DeInit	16	static
lm_stm32f407xx_spi.c:165:9:SPI_GetFlagStatus	16	static
lm_stm32f407xx_spi.c:187:6:SPI_SendData	24	static
lm_stm32f407xx_spi.c:229:6:SPI_ReceiveData	24	static
lm_stm32f407xx_spi.c:270:6:SPI_PeripheralControl	16	static
lm_stm32f407xx_spi.c:295:6:SPI_SSIConfig	16	static
lm_stm32f407xx_spi.c:320:6:SPI_SSOEConfig	16	static
lm_stm32f407xx_spi.c:348:6:SPI_IRQInterruptConfig	16	static
lm_stm32f407xx_spi.c:401:6:SPI_IRQPriorityConfig	24	static
lm_stm32f407xx_spi.c:425:6:SPI_IRQHandling	24	static
lm_stm32f407xx_spi.c:459:9:SPI_SendDataIT	32	static
lm_stm32f407xx_spi.c:479:9:SPI_ReceiveDataIT	32	static
lm_stm32f407xx_spi.c:501:13:spi_txe_interrupt_handle	16	static
lm_stm32f407xx_spi.c:528:13:spi_rxne_interrupt_handle	16	static
lm_stm32f407xx_spi.c:555:13:spi_ovr_err_interrupt_handle	24	static
lm_stm32f407xx_spi.c:569:6:SPI_CloseTransmisson	16	static
lm_stm32f407xx_spi.c:577:6:SPI_CloseReception	16	static
lm_stm32f407xx_spi.c:585:6:SPI_ClearOVRFlag	24	static
lm_stm32f407xx_spi.c:593:13:SPI_ApplicationEventCallback	16	static
