2020-07-14 18:05:57,328 [INFO] Activator:176 - 


2020-07-14 18:05:57,332 [INFO] Activator:177 - !SESSION log4j initialized
2020-07-15 17:53:13,350 [INFO] Activator:176 - 


2020-07-15 17:53:13,362 [INFO] Activator:177 - !SESSION log4j initialized
